{
  "_comment" : "Created with OWL2VOWL (version 0.3.5), http://vowl.visualdataweb.org",
  "header" : {
    "languages" : [ "en", "nl", "undefined" ],
    "baseIris" : [ "http://www.w3.org/1999/02/22-rdf-syntax-ns", "http://rdfs.org/ns/void", "http://www.w3.org/2000/01/rdf-schema", "http://purl.org/dc/terms", "http://www.w3.org/2001/XMLSchema", "http://www.w3.org/ns", "http://xmlns.com/foaf/0.1", "http://www.w3.org/2006/time", "https://data.rijksfinancien.nl/budget/def" ],
    "title" : {
      "en" : "Budget Ontology",
      "nl" : "Budget Ontologie"
    },
    "iri" : "https://data.rijksfinancien.nl/budget/def/",
    "version" : "0.2",
    "author" : [ "Flores Bakker" ],
    "other" : {
      "license" : [ {
        "identifier" : "license",
        "language" : "undefined",
        "value" : "http://creativecommons.org/licenses/by/4.0",
        "type" : "label"
      } ],
      "creator" : [ {
        "identifier" : "creator",
        "language" : "undefined",
        "value" : "Flores Bakker",
        "type" : "label"
      } ],
      "contributor" : [ {
        "identifier" : "contributor",
        "language" : "undefined",
        "value" : "Flores Bakker",
        "type" : "label"
      } ],
      "created" : [ {
        "identifier" : "created",
        "language" : "undefined",
        "value" : "2021-10-22",
        "type" : "label"
      } ],
      "preferredNamespacePrefix" : [ {
        "identifier" : "preferredNamespacePrefix",
        "language" : "undefined",
        "value" : "budo",
        "type" : "label"
      } ],
      "publisher" : [ {
        "identifier" : "publisher",
        "language" : "undefined",
        "value" : "http://standaarden.overheid.nl/owms/terms/Ministerie_van_Financien",
        "type" : "iri"
      } ],
      "abstract" : [ {
        "identifier" : "abstract",
        "language" : "nl",
        "value" : "De Budget Ontologie beschrijft de basiselementen van een budget. In deze ontologie wordt met budget een financieel plan bedoeld voor een periode en een begrote agent met een raming van toekomstige financiele transities zoals kosten, inkomsten, uitgaven en ontvangsten.",
        "type" : "label"
      }, {
        "identifier" : "abstract",
        "language" : "en",
        "value" : "The Budget Ontology describes the fundamental aspects of a budget. In this ontology the budget is taken to be a financial plan for a period and a budgeted agent with an estimate of future financial transitions like costs, revenue, expenditures and receipts and their detailed description and justification.",
        "type" : "label"
      } ],
      "versionInfo" : [ {
        "identifier" : "versionInfo",
        "language" : "undefined",
        "value" : "0.2",
        "type" : "label"
      } ],
      "preferredNamespaceUri" : [ {
        "identifier" : "preferredNamespaceUri",
        "language" : "undefined",
        "value" : "https://data.rijksfinancien.nl/budget/def/",
        "type" : "label"
      } ],
      "title" : [ {
        "identifier" : "title",
        "language" : "nl",
        "value" : "Budget Ontologie",
        "type" : "label"
      }, {
        "identifier" : "title",
        "language" : "en",
        "value" : "Budget Ontology",
        "type" : "label"
      } ]
    }
  },
  "namespace" : [ ],
  "class" : [ {
    "id" : "0",
    "type" : "owl:Class"
  }, {
    "id" : "5",
    "type" : "owl:unionOf"
  }, {
    "id" : "1",
    "type" : "owl:Class"
  }, {
    "id" : "15",
    "type" : "owl:Class"
  }, {
    "id" : "7",
    "type" : "owl:Class"
  }, {
    "id" : "36",
    "type" : "owl:Class"
  }, {
    "id" : "41",
    "type" : "owl:Class"
  }, {
    "id" : "43",
    "type" : "rdfs:Literal"
  }, {
    "id" : "38",
    "type" : "rdfs:Literal"
  }, {
    "id" : "46",
    "type" : "rdfs:Literal"
  }, {
    "id" : "45",
    "type" : "rdfs:Literal"
  }, {
    "id" : "30",
    "type" : "rdfs:Literal"
  }, {
    "id" : "34",
    "type" : "rdfs:Literal"
  }, {
    "id" : "48",
    "type" : "rdfs:Literal"
  }, {
    "id" : "53",
    "type" : "owl:Class"
  }, {
    "id" : "54",
    "type" : "owl:Class"
  }, {
    "id" : "50",
    "type" : "rdfs:Literal"
  }, {
    "id" : "8",
    "type" : "owl:Class"
  }, {
    "id" : "52",
    "type" : "rdfs:Literal"
  }, {
    "id" : "10",
    "type" : "rdfs:Literal"
  }, {
    "id" : "32",
    "type" : "owl:Class"
  }, {
    "id" : "14",
    "type" : "rdfs:Literal"
  }, {
    "id" : "56",
    "type" : "rdfs:Literal"
  }, {
    "id" : "21",
    "type" : "rdfs:Literal"
  }, {
    "id" : "24",
    "type" : "rdfs:Literal"
  }, {
    "id" : "28",
    "type" : "rdfs:Literal"
  }, {
    "id" : "3",
    "type" : "owl:Thing"
  }, {
    "id" : "4",
    "type" : "rdfs:Literal"
  }, {
    "id" : "12",
    "type" : "owl:Class"
  }, {
    "id" : "16",
    "type" : "owl:Class"
  }, {
    "id" : "63",
    "type" : "owl:Class"
  }, {
    "id" : "6",
    "type" : "owl:Class"
  } ],
  "classAttribute" : [ {
    "iri" : "https://data.rijksfinancien.nl/budget/def/BudgetedAgent",
    "baseIri" : "https://data.rijksfinancien.nl/budget/def",
    "instances" : 0,
    "label" : {
      "IRI-based" : "BudgetedAgent",
      "en" : "Budgeted agent"
    },
    "comment" : {
      "undefined" : "An agent that is a budget beneficiary and receives as such a financial mandate to spend money up and till a maximum financial ceiling as set by the budget, or an agent that uses the budget as an estimate of future expenditures and receipts, or both."
    },
    "id" : "0",
    "superClasses" : [ "1" ]
  }, {
    "iri" : "https://data.rijksfinancien.nl/budget/def/BudgetComponent",
    "baseIri" : "https://data.rijksfinancien.nl/budget/def",
    "instances" : 0,
    "label" : {
      "IRI-based" : "BudgetComponent",
      "en" : "Budget component"
    },
    "union" : [ "6", "7", "8" ],
    "subClasses" : [ "6", "7", "8" ],
    "comment" : {
      "undefined" : "A fundamental budget component that can be described using classifications and accounting references"
    },
    "attributes" : [ "union" ],
    "id" : "5"
  }, {
    "iri" : "http://xmlns.com/foaf/0.1/Agent",
    "baseIri" : "http://xmlns.com/foaf/0.1",
    "instances" : 0,
    "label" : {
      "IRI-based" : "Agent"
    },
    "subClasses" : [ "0" ],
    "attributes" : [ "external" ],
    "id" : "1"
  }, {
    "iri" : "https://data.rijksfinancien.nl/budget/def/BudgetedEntity",
    "baseIri" : "https://data.rijksfinancien.nl/budget/def",
    "instances" : 0,
    "label" : {
      "IRI-based" : "BudgetedEntity",
      "en" : "Budgeted entity"
    },
    "subClasses" : [ "16" ],
    "comment" : {
      "undefined" : "Any resource that money can be spent on, can be budgeted. The resource can be any object, whether abstract or physical, any activity, organisation, desired state of affairs, region, instrument, tool, et cetera."
    },
    "id" : "15"
  }, {
    "iri" : "https://data.rijksfinancien.nl/budget/def/Budget",
    "baseIri" : "https://data.rijksfinancien.nl/budget/def",
    "instances" : 0,
    "label" : {
      "IRI-based" : "Budget",
      "en" : "Budget"
    },
    "comment" : {
      "undefined" : "A budget is a financial plan for a period and a budgeted agent with an estimate of future financial transitions like costs, revenue, expenditures and receipts and their detailed description and justification. The budget may have a recurring interval associated with it, or it may be incidental. Companies, governments, families, and other organizations use it to express strategic plans of activities or events in measurable terms. The budget can be applied as a forecasting instrument for financial transitions and functions then as an estimate that facilitates strategic decisions for the budgeted agent in question, or other agents. A budget can be used to authorize the budgeted agent to undergo financial transitions and functions then as a ceiling. A budget can also be used in a combination of these functions."
    },
    "id" : "7",
    "superClasses" : [ "5" ]
  }, {
    "iri" : "https://data.rijksfinancien.nl/budget/def/Classification",
    "baseIri" : "https://data.rijksfinancien.nl/budget/def",
    "instances" : 0,
    "label" : {
      "IRI-based" : "Classification",
      "en" : "Classification"
    },
    "comment" : {
      "undefined" : "A classification classifies the budget component into a specific categorical group to provide additional information regarding the context. A budget component can have one or more classifications and these classifications may come from different knowledge domains and ontologies. A classification can be of a hierarchical structure."
    },
    "id" : "36"
  }, {
    "iri" : "https://data.rijksfinancien.nl/budget/def/AccountingReference",
    "baseIri" : "https://data.rijksfinancien.nl/budget/def",
    "instances" : 0,
    "label" : {
      "IRI-based" : "AccountingReference",
      "en" : "Accounting reference"
    },
    "comment" : {
      "undefined" : "An accounting reference contains an accounting specification of a budgeted amount in a budget component. A budget component has one or more budget accounting references."
    },
    "id" : "41"
  }, {
    "iri" : "http://www.w3.org/2000/01/rdf-schema#Literal",
    "id" : "43",
    "label" : {
      "IRI-based" : "Literal",
      "undefined" : "Literal"
    }
  }, {
    "iri" : "http://www.w3.org/2000/01/rdf-schema#Literal",
    "id" : "38",
    "label" : {
      "IRI-based" : "Literal",
      "undefined" : "Literal"
    }
  }, {
    "iri" : "http://www.w3.org/2000/01/rdf-schema#Literal",
    "id" : "46",
    "label" : {
      "IRI-based" : "Literal",
      "undefined" : "Literal"
    }
  }, {
    "iri" : "http://www.w3.org/2000/01/rdf-schema#Literal",
    "id" : "45",
    "label" : {
      "IRI-based" : "Literal",
      "undefined" : "Literal"
    }
  }, {
    "iri" : "http://www.w3.org/2000/01/rdf-schema#Literal",
    "id" : "30",
    "label" : {
      "IRI-based" : "Literal",
      "undefined" : "Literal"
    }
  }, {
    "iri" : "http://www.w3.org/2000/01/rdf-schema#Literal",
    "id" : "34",
    "label" : {
      "IRI-based" : "Literal",
      "undefined" : "Literal"
    }
  }, {
    "iri" : "http://www.w3.org/2000/01/rdf-schema#Literal",
    "id" : "48",
    "label" : {
      "IRI-based" : "Literal",
      "undefined" : "Literal"
    }
  }, {
    "iri" : "http://rdfs.org/ns/void#Dataset",
    "baseIri" : "http://rdfs.org/ns/void",
    "instances" : 0,
    "label" : {
      "IRI-based" : "Dataset"
    },
    "individuals" : [ {
      "iri" : "https://data.rijksfinancien.nl/budget/def/",
      "baseIri" : "https://data.rijksfinancien.nl/budget",
      "labels" : { }
    } ],
    "attributes" : [ "external" ],
    "id" : "53"
  }, {
    "iri" : "http://www.w3.org/2006/time#DateTimeInterval",
    "baseIri" : "http://www.w3.org/2006/time",
    "instances" : 0,
    "label" : {
      "IRI-based" : "DateTimeInterval"
    },
    "attributes" : [ "external" ],
    "id" : "54"
  }, {
    "iri" : "http://www.w3.org/2000/01/rdf-schema#Literal",
    "id" : "50",
    "label" : {
      "IRI-based" : "Literal",
      "undefined" : "Literal"
    }
  }, {
    "iri" : "https://data.rijksfinancien.nl/budget/def/BudgetLine",
    "baseIri" : "https://data.rijksfinancien.nl/budget/def",
    "instances" : 0,
    "label" : {
      "IRI-based" : "BudgetLine",
      "en" : "Budget line"
    },
    "comment" : {
      "undefined" : "A budget line contains a specification of a budgeted amount in a budget. A budget has one or more budget lines. A budget line can itself consist of one or more underlying budget lines for further specification."
    },
    "id" : "8",
    "superClasses" : [ "5" ]
  }, {
    "iri" : "http://www.w3.org/2000/01/rdf-schema#Literal",
    "id" : "52",
    "label" : {
      "IRI-based" : "Literal",
      "undefined" : "Literal"
    }
  }, {
    "iri" : "http://www.w3.org/2000/01/rdf-schema#Literal",
    "id" : "10",
    "label" : {
      "IRI-based" : "Literal",
      "undefined" : "Literal"
    }
  }, {
    "iri" : "https://data.rijksfinancien.nl/budget/def/BudgetAmount",
    "baseIri" : "https://data.rijksfinancien.nl/budget/def",
    "instances" : 0,
    "label" : {
      "IRI-based" : "BudgetAmount",
      "en" : "Budget amount"
    },
    "comment" : {
      "undefined" : "A budget amount is the financial quantity that is budgeted. It can have dimensions like currency and notation."
    },
    "id" : "32"
  }, {
    "iri" : "http://www.w3.org/2000/01/rdf-schema#Literal",
    "id" : "14",
    "label" : {
      "IRI-based" : "Literal",
      "undefined" : "Literal"
    }
  }, {
    "iri" : "http://www.w3.org/2000/01/rdf-schema#Literal",
    "id" : "56",
    "label" : {
      "IRI-based" : "Literal",
      "undefined" : "Literal"
    }
  }, {
    "iri" : "http://www.w3.org/2000/01/rdf-schema#Literal",
    "id" : "21",
    "label" : {
      "IRI-based" : "Literal",
      "undefined" : "Literal"
    }
  }, {
    "iri" : "http://www.w3.org/2000/01/rdf-schema#Literal",
    "id" : "24",
    "label" : {
      "IRI-based" : "Literal",
      "undefined" : "Literal"
    }
  }, {
    "iri" : "http://www.w3.org/2000/01/rdf-schema#Literal",
    "id" : "28",
    "label" : {
      "IRI-based" : "Literal",
      "undefined" : "Literal"
    }
  }, {
    "iri" : "http://www.w3.org/2002/07/owl#Thing",
    "baseIri" : "http://owl2vowl.de",
    "id" : "3",
    "label" : {
      "undefined" : "Thing"
    }
  }, {
    "iri" : "http://www.w3.org/2000/01/rdf-schema#Literal",
    "id" : "4",
    "label" : {
      "IRI-based" : "Literal",
      "undefined" : "Literal"
    }
  }, {
    "iri" : "https://data.rijksfinancien.nl/budget/def/BudgetFunction",
    "baseIri" : "https://data.rijksfinancien.nl/budget/def",
    "instances" : 0,
    "label" : {
      "IRI-based" : "BudgetFunction",
      "en" : "Budget function"
    },
    "individuals" : [ {
      "iri" : "https://data.rijksfinancien.nl/budget/def/Estimate",
      "baseIri" : "https://data.rijksfinancien.nl/budget/def",
      "comment" : {
        "en" : "A forecasting function of a budget that works solely as an estimate of future costs, revenue, expenditures and/or receipts for an organisation, to compare actuals/realisation with. "
      },
      "labels" : {
        "IRI-based" : "Estimate",
        "en" : "Estimate"
      }
    }, {
      "iri" : "https://data.rijksfinancien.nl/budget/def/Ceiling",
      "baseIri" : "https://data.rijksfinancien.nl/budget/def",
      "comment" : {
        "en" : "An authorization function of a budget that works solely as a limiting ceiling of costs, revenue, expenditures and/or receipts for an organisation. In that case, it might still be possible that prognoses indicate more future expenditures, receipts, costs and/or revenue than the budget ceiling allows, and even will be done, just that these are not authorized (or financed) through this particular budget and for which other means of financing/budgeting have to be found."
      },
      "labels" : {
        "IRI-based" : "Ceiling",
        "en" : "Ceiling"
      }
    }, {
      "iri" : "https://data.rijksfinancien.nl/budget/def/CeilingEstimate",
      "baseIri" : "https://data.rijksfinancien.nl/budget/def",
      "comment" : {
        "en" : "A budget function that works both as an estimate of future costs, revenue, expenditures and/or receipts and a limiting ceiling on implementing these."
      },
      "labels" : {
        "IRI-based" : "CeilingEstimate",
        "en" : "Ceiling Estimate"
      }
    } ],
    "comment" : {
      "undefined" : "A budget can be used for three different goals. (1) The budget can have a forecasting function and works then solely as an estimate of future financial transitions like costs, revenue, expenditures and receipts for an organisation. This can be used to compare actuals with, also known as realisation. (2) The budget can have an authorization function and works then solely as a limiting ceiling for a budgeted agent, like an organisation or person. This does not preclude that there might be prognoses for financial transitions in the future that either exceed or subceed the given budget. This does not even preclude that an agent might actually undergo more financial transitions like expenditures, receipts, costs and revenue than the budget ceiling allows. (3) In its fullest form a budget functions as both an estimate and limiting ceiling."
    },
    "id" : "12"
  }, {
    "iri" : "https://data.rijksfinancien.nl/budget/def/BudgetedTransactionType",
    "baseIri" : "https://data.rijksfinancien.nl/budget/def",
    "instances" : 0,
    "label" : {
      "IRI-based" : "BudgetedTransactionType",
      "en" : "Budgeted transaction type"
    },
    "comment" : {
      "undefined" : "A budgeted transaction type indicates what transaction type is budgeted. Examples can be an expenditure (payment), expense, receipt, revenue, commitment, asset, asset deprecation, liability, loan, subsidy, appraisal, interest, and other accounting transactions or entries. It is a subclass of BudgetedEntity but warrants its own class."
    },
    "id" : "16",
    "superClasses" : [ "15" ]
  }, {
    "iri" : "http://www.w3.org/ns/sparql-service-descriptionGraph",
    "baseIri" : "http://www.w3.org/ns",
    "instances" : 0,
    "label" : {
      "IRI-based" : "sparql-service-descriptionGraph"
    },
    "individuals" : [ {
      "iri" : "https://data.rijksfinancien.nl/budget/def/",
      "baseIri" : "https://data.rijksfinancien.nl/budget",
      "labels" : { }
    } ],
    "attributes" : [ "external" ],
    "id" : "63"
  }, {
    "iri" : "https://data.rijksfinancien.nl/budget/def/BudgetAdjustment",
    "baseIri" : "https://data.rijksfinancien.nl/budget/def",
    "instances" : 0,
    "label" : {
      "IRI-based" : "BudgetAdjustment",
      "en" : "Budget adjustment"
    },
    "comment" : {
      "undefined" : "A budget component may be adjusted. The adjustment is modeled as the budget component to which it is applied."
    },
    "id" : "6",
    "superClasses" : [ "5" ]
  } ],
  "property" : [ {
    "id" : "2",
    "type" : "owl:datatypeProperty"
  }, {
    "id" : "9",
    "type" : "owl:datatypeProperty"
  }, {
    "id" : "11",
    "type" : "owl:objectProperty"
  }, {
    "id" : "13",
    "type" : "owl:datatypeProperty"
  }, {
    "id" : "17",
    "type" : "rdfs:SubClassOf"
  }, {
    "id" : "18",
    "type" : "owl:objectProperty"
  }, {
    "id" : "19",
    "type" : "rdfs:SubClassOf"
  }, {
    "id" : "20",
    "type" : "owl:datatypeProperty"
  }, {
    "id" : "22",
    "type" : "owl:objectProperty"
  }, {
    "id" : "23",
    "type" : "owl:datatypeProperty"
  }, {
    "id" : "25",
    "type" : "owl:objectProperty"
  }, {
    "id" : "26",
    "type" : "owl:objectProperty"
  }, {
    "id" : "27",
    "type" : "owl:datatypeProperty"
  }, {
    "id" : "29",
    "type" : "owl:datatypeProperty"
  }, {
    "id" : "31",
    "type" : "owl:objectProperty"
  }, {
    "id" : "33",
    "type" : "owl:datatypeProperty"
  }, {
    "id" : "35",
    "type" : "rdfs:SubClassOf"
  }, {
    "id" : "37",
    "type" : "owl:datatypeProperty"
  }, {
    "id" : "39",
    "type" : "rdfs:SubClassOf"
  }, {
    "id" : "40",
    "type" : "rdfs:SubClassOf"
  }, {
    "id" : "42",
    "type" : "owl:datatypeProperty"
  }, {
    "id" : "44",
    "type" : "owl:datatypeProperty"
  }, {
    "id" : "47",
    "type" : "owl:datatypeProperty"
  }, {
    "id" : "49",
    "type" : "owl:datatypeProperty"
  }, {
    "id" : "51",
    "type" : "owl:datatypeProperty"
  }, {
    "id" : "55",
    "type" : "owl:objectProperty"
  }, {
    "id" : "57",
    "type" : "owl:datatypeProperty"
  }, {
    "id" : "58",
    "type" : "owl:objectProperty"
  }, {
    "id" : "59",
    "type" : "owl:objectProperty"
  }, {
    "id" : "60",
    "type" : "owl:objectProperty"
  }, {
    "id" : "61",
    "type" : "owl:objectProperty"
  }, {
    "id" : "62",
    "type" : "owl:objectProperty"
  }, {
    "id" : "64",
    "type" : "owl:datatypeProperty"
  } ],
  "propertyAttribute" : [ {
    "iri" : "http://purl.org/dc/terms/issued",
    "baseIri" : "http://purl.org/dc/terms",
    "range" : "4",
    "label" : {
      "IRI-based" : "issued"
    },
    "domain" : "3",
    "attributes" : [ "datatype", "external" ],
    "id" : "2"
  }, {
    "iri" : "http://purl.org/dc/terms/modified",
    "baseIri" : "http://purl.org/dc/terms",
    "range" : "10",
    "label" : {
      "IRI-based" : "modified"
    },
    "domain" : "3",
    "attributes" : [ "datatype", "external" ],
    "id" : "9"
  }, {
    "iri" : "https://data.rijksfinancien.nl/budget/def/hasBudgetFunction",
    "baseIri" : "https://data.rijksfinancien.nl/budget/def",
    "range" : "12",
    "label" : {
      "IRI-based" : "hasBudgetFunction",
      "en" : "has budget function"
    },
    "domain" : "5",
    "comment" : {
      "en" : "The budget or a budget line is used with a specific goal."
    },
    "attributes" : [ "object" ],
    "id" : "11"
  }, {
    "iri" : "http://purl.org/dc/terms/temporal",
    "baseIri" : "http://purl.org/dc/terms",
    "range" : "14",
    "label" : {
      "IRI-based" : "temporal"
    },
    "domain" : "3",
    "attributes" : [ "datatype", "external" ],
    "id" : "13"
  }, {
    "range" : "15",
    "domain" : "16",
    "attributes" : [ "anonymous", "object" ],
    "id" : "17"
  }, {
    "iri" : "https://data.rijksfinancien.nl/budget/def/hasBudgetComponent",
    "baseIri" : "https://data.rijksfinancien.nl/budget/def",
    "range" : "5",
    "label" : {
      "IRI-based" : "hasBudgetComponent",
      "en" : "has budget"
    },
    "domain" : "0",
    "comment" : {
      "en" : "A budgeted agent has a budget component."
    },
    "attributes" : [ "object" ],
    "id" : "18"
  }, {
    "range" : "1",
    "domain" : "0",
    "attributes" : [ "anonymous", "object" ],
    "id" : "19"
  }, {
    "iri" : "https://data.rijksfinancien.nl/budget/def/periodicity",
    "baseIri" : "https://data.rijksfinancien.nl/budget/def",
    "range" : "21",
    "label" : {
      "IRI-based" : "periodicity",
      "en" : "periodicity"
    },
    "domain" : "5",
    "comment" : {
      "en" : "A budget component has an associated periodicity, like annual, monthly, weekly, daily or incidental that indicates if and at which interval the budget component recurs."
    },
    "attributes" : [ "datatype" ],
    "id" : "20"
  }, {
    "iri" : "https://data.rijksfinancien.nl/budget/def/hasBudgetAdjustment",
    "baseIri" : "https://data.rijksfinancien.nl/budget/def",
    "range" : "6",
    "label" : {
      "IRI-based" : "hasBudgetAdjustment",
      "en" : "has budget adjustment"
    },
    "domain" : "5",
    "comment" : {
      "en" : "A budget component may be adjusted."
    },
    "attributes" : [ "object" ],
    "id" : "22"
  }, {
    "iri" : "https://data.rijksfinancien.nl/budget/def/identifier",
    "baseIri" : "https://data.rijksfinancien.nl/budget/def",
    "range" : "24",
    "label" : {
      "IRI-based" : "identifier",
      "en" : "identifier"
    },
    "domain" : "5",
    "comment" : {
      "en" : "A budget and a budget line can each be identified by an identifier"
    },
    "attributes" : [ "datatype" ],
    "id" : "23"
  }, {
    "iri" : "https://data.rijksfinancien.nl/budget/def/isVersionOf",
    "baseIri" : "https://data.rijksfinancien.nl/budget/def",
    "range" : "5",
    "label" : {
      "IRI-based" : "isVersionOf",
      "en" : "isVersionOf"
    },
    "domain" : "5",
    "comment" : {
      "en" : "A budget component can go through several incarnations from draft to (amended) definitive version. This property tracks what is the former version that the current budget amends. If no amendements are there, then it refers to itself."
    },
    "attributes" : [ "object" ],
    "id" : "25"
  }, {
    "iri" : "https://data.rijksfinancien.nl/budget/def/hasBudgetLine",
    "baseIri" : "https://data.rijksfinancien.nl/budget/def",
    "range" : "8",
    "label" : {
      "IRI-based" : "hasBudgetLine",
      "en" : "has budget line"
    },
    "domain" : "5",
    "comment" : {
      "en" : "A budget has one or more budget lines to specify the budget. A budget line can itself consist of one or more underlying budget lines to specify the budget even further."
    },
    "attributes" : [ "object" ],
    "id" : "26"
  }, {
    "iri" : "http://purl.org/dc/terms/dateSubmitted",
    "baseIri" : "http://purl.org/dc/terms",
    "range" : "28",
    "label" : {
      "IRI-based" : "dateSubmitted"
    },
    "domain" : "3",
    "attributes" : [ "datatype", "external" ],
    "id" : "27"
  }, {
    "iri" : "http://purl.org/dc/terms/identifier",
    "baseIri" : "http://purl.org/dc/terms",
    "range" : "30",
    "label" : {
      "IRI-based" : "identifier"
    },
    "domain" : "3",
    "attributes" : [ "datatype", "external" ],
    "id" : "29"
  }, {
    "iri" : "https://data.rijksfinancien.nl/budget/def/hasBudgetLineAmount",
    "baseIri" : "https://data.rijksfinancien.nl/budget/def",
    "range" : "32",
    "label" : {
      "IRI-based" : "hasBudgetLineAmount",
      "en" : "has budget line amount"
    },
    "domain" : "8",
    "comment" : {
      "en" : "A budget line has one budget line amount."
    },
    "attributes" : [ "object" ],
    "id" : "31"
  }, {
    "iri" : "https://data.rijksfinancien.nl/budget/def/authorized",
    "baseIri" : "https://data.rijksfinancien.nl/budget/def",
    "range" : "34",
    "label" : {
      "IRI-based" : "authorized",
      "en" : "date time authorized"
    },
    "domain" : "5",
    "comment" : {
      "en" : "A budget or budget line is authorized on a certain date and time."
    },
    "attributes" : [ "datatype" ],
    "id" : "33"
  }, {
    "range" : "5",
    "domain" : "7",
    "attributes" : [ "anonymous", "object" ],
    "id" : "35"
  }, {
    "iri" : "https://data.rijksfinancien.nl/budget/def/provenance",
    "baseIri" : "https://data.rijksfinancien.nl/budget/def",
    "range" : "38",
    "label" : {
      "IRI-based" : "provenance",
      "en" : "provenance"
    },
    "domain" : "5",
    "comment" : {
      "en" : "A statement that includes a description of any succesive changes made to the budget and its budget lines."
    },
    "attributes" : [ "datatype" ],
    "id" : "37"
  }, {
    "range" : "5",
    "domain" : "6",
    "attributes" : [ "anonymous", "object" ],
    "id" : "39"
  }, {
    "range" : "5",
    "domain" : "8",
    "attributes" : [ "anonymous", "object" ],
    "id" : "40"
  }, {
    "iri" : "http://purl.org/dc/terms/dateAccepted",
    "baseIri" : "http://purl.org/dc/terms",
    "range" : "43",
    "label" : {
      "IRI-based" : "dateAccepted"
    },
    "domain" : "3",
    "attributes" : [ "datatype", "external" ],
    "id" : "42"
  }, {
    "iri" : "http://purl.org/dc/terms/description",
    "baseIri" : "http://purl.org/dc/terms",
    "range" : "45",
    "label" : {
      "IRI-based" : "description"
    },
    "domain" : "3",
    "attributes" : [ "datatype", "external" ],
    "id" : "44"
  }, {
    "iri" : "https://data.rijksfinancien.nl/budget/def/modified",
    "baseIri" : "https://data.rijksfinancien.nl/budget/def",
    "range" : "46",
    "label" : {
      "IRI-based" : "modified",
      "en" : "date time modified"
    },
    "domain" : "5",
    "comment" : {
      "en" : "A budget or budget line is modified on a certain date and time."
    },
    "attributes" : [ "datatype" ],
    "id" : "47"
  }, {
    "iri" : "http://purl.org/dc/terms/provenance",
    "baseIri" : "http://purl.org/dc/terms",
    "range" : "50",
    "label" : {
      "IRI-based" : "provenance"
    },
    "domain" : "3",
    "attributes" : [ "datatype", "external" ],
    "id" : "49"
  }, {
    "iri" : "https://data.rijksfinancien.nl/budget/def/description",
    "baseIri" : "https://data.rijksfinancien.nl/budget/def",
    "range" : "52",
    "label" : {
      "IRI-based" : "description",
      "en" : "has budget description"
    },
    "domain" : "5",
    "comment" : {
      "en" : "A description of a budget component gives more context in human readable form."
    },
    "attributes" : [ "datatype" ],
    "id" : "51"
  }, {
    "iri" : "https://data.rijksfinancien.nl/budget/def/hasClassification",
    "baseIri" : "https://data.rijksfinancien.nl/budget/def",
    "range" : "36",
    "label" : {
      "IRI-based" : "hasClassification",
      "en" : "has classification"
    },
    "domain" : "5",
    "comment" : {
      "en" : "A budget component has one or more classifications."
    },
    "attributes" : [ "object" ],
    "id" : "55"
  }, {
    "iri" : "https://data.rijksfinancien.nl/budget/def/submitted",
    "baseIri" : "https://data.rijksfinancien.nl/budget/def",
    "range" : "56",
    "label" : {
      "IRI-based" : "submitted",
      "en" : "date time submitted"
    },
    "domain" : "5",
    "comment" : {
      "en" : "A budget or budget line is submitted for authorization on a certain date and time."
    },
    "attributes" : [ "datatype" ],
    "id" : "57"
  }, {
    "iri" : "https://data.rijksfinancien.nl/budget/def/hasBudgetedEntity",
    "baseIri" : "https://data.rijksfinancien.nl/budget/def",
    "range" : "15",
    "label" : {
      "IRI-based" : "hasBudgetedEntity",
      "en" : "has budgeted entity"
    },
    "domain" : "5",
    "comment" : {
      "en" : "Any resource that money can be spent on, can be budgeted. The resource can be any object, whether abstract or physical, any activity, organisation, desired state of affairs, region, et cetera."
    },
    "attributes" : [ "object" ],
    "id" : "58"
  }, {
    "iri" : "https://data.rijksfinancien.nl/budget/def/hasAccountingReference",
    "baseIri" : "https://data.rijksfinancien.nl/budget/def",
    "range" : "41",
    "label" : {
      "IRI-based" : "hasAccountingReference",
      "en" : "has accounting reference"
    },
    "domain" : "5",
    "comment" : {
      "en" : "A budget component has one or more accounting references."
    },
    "attributes" : [ "object" ],
    "id" : "59"
  }, {
    "iri" : "https://data.rijksfinancien.nl/budget/def/budgetedPeriod",
    "baseIri" : "https://data.rijksfinancien.nl/budget/def",
    "range" : "54",
    "label" : {
      "IRI-based" : "budgetedPeriod",
      "en" : "budgeted period"
    },
    "domain" : "5",
    "comment" : {
      "en" : "The date time interval in which money can be spent or received by a budgeted agent up and till a maximum financial ceiling as set by the budget, or the date time interval in which money is prognosed to be spent or received by a budgeted agent up and till the estimate as set by the budget, or both."
    },
    "attributes" : [ "object" ],
    "id" : "60"
  }, {
    "iri" : "https://data.rijksfinancien.nl/budget/def/hasAuthorizingAgent",
    "baseIri" : "https://data.rijksfinancien.nl/budget/def",
    "range" : "1",
    "label" : {
      "IRI-based" : "hasAuthorizingAgent",
      "en" : "has authorizing agent"
    },
    "domain" : "5",
    "comment" : {
      "en" : "An agent that authorizes the budget so that the budgeted agent (as a budget beneficiary) can spend the money up and till a maximum financial ceiling as set by the budget. The budget is in this case used as a financial mandate."
    },
    "attributes" : [ "object" ],
    "id" : "61"
  }, {
    "iri" : "https://data.rijksfinancien.nl/budget/def/hasBudgetedAgent",
    "baseIri" : "https://data.rijksfinancien.nl/budget/def",
    "range" : "1",
    "label" : {
      "IRI-based" : "hasBudgetedAgent",
      "en" : "has budgeted agent"
    },
    "domain" : "5",
    "comment" : {
      "en" : "An agent that is a budget beneficiary and receives as such a financial mandate to spend money up and till a maximum financial ceiling as set by the budget, or an agent that uses the budget as an estimate of future expenditures, expenses, receipts and revenues, or both."
    },
    "attributes" : [ "object" ],
    "id" : "62"
  }, {
    "iri" : "https://data.rijksfinancien.nl/budget/def/issued",
    "baseIri" : "https://data.rijksfinancien.nl/budget/def",
    "range" : "48",
    "label" : {
      "IRI-based" : "issued",
      "en" : "date time issued"
    },
    "domain" : "5",
    "comment" : {
      "en" : "A budget or budget line is issued on a certain date and time."
    },
    "attributes" : [ "datatype" ],
    "id" : "64"
  } ]
}